{
    "_links": {
        "self": {
            "href": "http:\/\/default\/content-theme\/social-determinants-health?_format=hal_json"
        },
        "type": {
            "href": "http:\/\/drupal.org\/rest\/type\/taxonomy_term\/content_theme"
        }
    },
    "tid": [
        {
            "value": 11
        }
    ],
    "uuid": [
        {
            "value": "2e547b8a-d399-4f23-99ec-93a1af96f066"
        }
    ],
    "langcode": [
        {
            "value": "en",
            "lang": "en"
        }
    ],
    "vid": [
        {
            "target_id": "content_theme"
        }
    ],
    "name": [
        {
            "value": "Social Determinants of Health",
            "lang": "en"
        }
    ],
    "weight": [
        {
            "value": 0
        }
    ],
    "changed": [
        {
            "value": 1495653848,
            "lang": "en"
        }
    ],
    "default_langcode": [
        {
            "value": true,
            "lang": "en"
        }
    ]
}