{
    "_links": {
        "self": {
            "href": "http:\/\/default\/staff-role\/executive-team?_format=hal_json"
        },
        "type": {
            "href": "http:\/\/drupal.org\/rest\/type\/taxonomy_term\/staff_role"
        }
    },
    "tid": [
        {
            "value": 4
        }
    ],
    "uuid": [
        {
            "value": "cbf49236-defe-47c3-8530-9784d4494da0"
        }
    ],
    "langcode": [
        {
            "value": "en",
            "lang": "en"
        }
    ],
    "vid": [
        {
            "target_id": "staff_role"
        }
    ],
    "name": [
        {
            "value": "Executive Team",
            "lang": "en"
        }
    ],
    "weight": [
        {
            "value": 0
        }
    ],
    "changed": [
        {
            "value": 1495652822,
            "lang": "en"
        }
    ],
    "default_langcode": [
        {
            "value": true,
            "lang": "en"
        }
    ]
}