{
    "_links": {
        "self": {
            "href": ""
        },
        "type": {
            "href": "http:\/\/drupal.org\/rest\/type\/paragraph\/hero_image"
        },
        "http:\/\/drupal.org\/rest\/relation\/paragraph\/hero_image\/uid": [
            {
                "href": "http:\/\/default\/user\/2?_format=hal_json",
                "lang": "en"
            }
        ],
        "http:\/\/drupal.org\/rest\/relation\/paragraph\/hero_image\/revision_uid": [
            {
                "href": "http:\/\/default\/user\/2?_format=hal_json"
            }
        ],
        "http:\/\/drupal.org\/rest\/relation\/paragraph\/hero_image\/field_image": [
            {
                "href": "http:\/\/default\/sites\/default\/files\/hero-image-image\/Temp-Hero-v2_2.jpg",
                "lang": "en"
            }
        ]
    },
    "id": [
        {
            "value": 387
        }
    ],
    "uuid": [
        {
            "value": "7e6c89c6-e176-492a-84b5-1071a3108c88"
        }
    ],
    "revision_id": [
        {
            "value": 2716
        }
    ],
    "type": [
        {
            "target_id": "hero_image"
        }
    ],
    "langcode": [
        {
            "value": "en",
            "lang": "en"
        }
    ],
    "_embedded": {
        "http:\/\/drupal.org\/rest\/relation\/paragraph\/hero_image\/uid": [
            {
                "_links": {
                    "self": {
                        "href": "http:\/\/default\/user\/2?_format=hal_json"
                    },
                    "type": {
                        "href": "http:\/\/drupal.org\/rest\/type\/user\/user"
                    }
                },
                "uuid": [
                    {
                        "value": "5732b0f3-6337-4f53-a359-a4af3861e99a"
                    }
                ],
                "lang": "en"
            }
        ],
        "http:\/\/drupal.org\/rest\/relation\/paragraph\/hero_image\/revision_uid": [
            {
                "_links": {
                    "self": {
                        "href": "http:\/\/default\/user\/2?_format=hal_json"
                    },
                    "type": {
                        "href": "http:\/\/drupal.org\/rest\/type\/user\/user"
                    }
                },
                "uuid": [
                    {
                        "value": "5732b0f3-6337-4f53-a359-a4af3861e99a"
                    }
                ]
            }
        ],
        "http:\/\/drupal.org\/rest\/relation\/paragraph\/hero_image\/field_image": [
            {
                "_links": {
                    "self": {
                        "href": "http:\/\/default\/sites\/default\/files\/hero-image-image\/Temp-Hero-v2_2.jpg"
                    },
                    "type": {
                        "href": "http:\/\/drupal.org\/rest\/type\/file\/file"
                    }
                },
                "uuid": [
                    {
                        "value": "04d1292d-b8bf-4835-974d-ef357e0160e4"
                    }
                ],
                "uri": [
                    {
                        "value": "http:\/\/default\/sites\/default\/files\/hero-image-image\/Temp-Hero-v2_2.jpg"
                    }
                ],
                "lang": "en"
            }
        ]
    },
    "status": [
        {
            "value": true,
            "lang": "en"
        }
    ],
    "created": [
        {
            "value": 1499717807,
            "lang": "en"
        }
    ],
    "parent_id": [
        {
            "value": "107"
        }
    ],
    "parent_type": [
        {
            "value": "node"
        }
    ],
    "parent_field_name": [
        {
            "value": "field_sections"
        }
    ],
    "behavior_settings": [
        {
            "value": "a:0:{}"
        }
    ],
    "default_langcode": [
        {
            "value": true,
            "lang": "en"
        }
    ],
    "field_color": [
        {
            "value": "white"
        }
    ],
    "field_constrain_width": [
        {
            "value": false,
            "lang": "en"
        }
    ],
    "field_header": [
        {
            "value": "Our Work",
            "format": "header",
            "lang": "en"
        }
    ],
    "field_vertical_positioning": [
        {
            "value": "top"
        }
    ]
}