{
    "_links": {
        "self": {
            "href": ""
        },
        "type": {
            "href": "http:\/\/drupal.org\/rest\/type\/paragraph\/simple_text_area"
        },
        "http:\/\/drupal.org\/rest\/relation\/paragraph\/simple_text_area\/uid": [
            {
                "href": "http:\/\/default\/user\/3?_format=hal_json",
                "lang": "en"
            }
        ],
        "http:\/\/drupal.org\/rest\/relation\/paragraph\/simple_text_area\/revision_uid": [
            {
                "href": "http:\/\/default\/user\/3?_format=hal_json"
            }
        ]
    },
    "id": [
        {
            "value": 5
        }
    ],
    "uuid": [
        {
            "value": "be1771b1-805f-409f-9d20-dd81eff1ac19"
        }
    ],
    "revision_id": [
        {
            "value": 323
        }
    ],
    "type": [
        {
            "target_id": "simple_text_area"
        }
    ],
    "langcode": [
        {
            "value": "en",
            "lang": "en"
        }
    ],
    "_embedded": {
        "http:\/\/drupal.org\/rest\/relation\/paragraph\/simple_text_area\/uid": [
            {
                "_links": {
                    "self": {
                        "href": "http:\/\/default\/user\/3?_format=hal_json"
                    },
                    "type": {
                        "href": "http:\/\/drupal.org\/rest\/type\/user\/user"
                    }
                },
                "uuid": [
                    {
                        "value": "8550f708-194d-42a0-9f52-157114ebaffd"
                    }
                ],
                "lang": "en"
            }
        ],
        "http:\/\/drupal.org\/rest\/relation\/paragraph\/simple_text_area\/revision_uid": [
            {
                "_links": {
                    "self": {
                        "href": "http:\/\/default\/user\/3?_format=hal_json"
                    },
                    "type": {
                        "href": "http:\/\/drupal.org\/rest\/type\/user\/user"
                    }
                },
                "uuid": [
                    {
                        "value": "8550f708-194d-42a0-9f52-157114ebaffd"
                    }
                ]
            }
        ]
    },
    "status": [
        {
            "value": true,
            "lang": "en"
        }
    ],
    "created": [
        {
            "value": 1495654434,
            "lang": "en"
        }
    ],
    "parent_id": [
        {
            "value": "2"
        }
    ],
    "parent_type": [
        {
            "value": "node"
        }
    ],
    "parent_field_name": [
        {
            "value": "field_sections"
        }
    ],
    "behavior_settings": [
        {
            "value": "a:0:{}"
        }
    ],
    "default_langcode": [
        {
            "value": true,
            "lang": "en"
        }
    ],
    "field_constrain_width": [
        {
            "value": true
        }
    ],
    "field_text": [
        {
            "value": "<p>This website is owned and operated by the National Institute for Children\u2019s Health Quality (NICHQ). These Terms of Use (\u201cTerms\u201d) apply to any and all information, online communications, services, text, images, video, audio files, links, or other material and content that is or becomes available on the site. By using this website, you agree to abide by these Terms and our <a href=\"privacy-policy\">Privacy Policy<\/a>, which is hereby incorporated into this agreement by reference, constituting an agreement between NICHQ and you. When we refer to ourselves as \u201cwe,\u201d \u201cus,\u201d \u201cour,\u201d and similar terms, we mean NICHQ, including any subsidiary we control. We may change these terms from time to time; use constitutes your acceptance of such changes.<\/p>\r\n\r\n<h3><span class=\"blue-color\">Restrictions on Use of Site Content<\/span><\/h3>\r\n\r\n<p>You may not circumvent, disable, or otherwise interfere with the security features of the website or the features that prevent or restrict the use or copying of any content. You may not collect or harvest any personally identifiable information from the website.<\/p>\r\n\r\n<h3><span class=\"blue-color\">User's Obligation to Abide by Applicable Law<\/span><\/h3>\r\n\r\n<p>You shall not violate any law, treaty, or intellectual property rights protected by law (such as copyright, patent, and trademark rights). You acknowledge that the content and materials available on the website include intellectual property that is protected under the copyright, trademark, and other intellectual property laws of the United States and\/or other countries (\u201cIntellectual Property Laws\u201d). Such Intellectual Property Laws generally prohibit the unauthorized reproduction, distribution, or exhibition of all text, photographic and graphic (art and electronic) images, audio video, and other protected materials. The violation of applicable Intellectual Property Laws may give rise to civil and\/or criminal penalties.<\/p>\r\n\r\n<h3><span class=\"blue-color\">Notification of Copyright Infringement<\/span><\/h3>\r\n\r\n<ol>\r\n\t<li><span>Notice: If you are a copyright owner or an agent of a copyright owner and believe that any content on the site infringes upon your copyrights, you may submit a notification in writing to our designated agent pursuant to the Digital Millennium Copyright Act (\"DMCA\") 17 USC section 512(c)(3): Katrina McCarty, National Institute for Children\u2019s Health Quality, 30 Winter Street, Boston, Massachusetts 02108 (<a href=\"mailto: kmccarty@nichq.org\">kmccarty@nichq.org<\/a>). According to 17 USC section 512 (c)(3)(a), all copyright infringement notifications must include the following information:<\/span>\r\n\r\n\t<ul>\r\n\t\t<li><span>A physical or electronic signature of a person authorized to act on behalf of the owner of an exclusive right that is allegedly infringed.<\/span><\/li>\r\n\t\t<li><span>Identification of the copyrighted work claimed to have been infringed\u2014or, if multiple copyrighted works at the website are covered by a single notification, a representative list of such works at the website;<\/span><\/li>\r\n\t\t<li><span>Identification of the material that is claimed to be infringing or to be the subject of infringing activity and that is to be removed or access to which is to be disabled, and information reasonably sufficient to permit us to locate the material;<\/span><\/li>\r\n\t\t<li><span>Information reasonably sufficient to permit us to contact you, such as an address, telephone number, and, if available, an email address;<\/span><\/li>\r\n\t\t<li><span>A statement that you have a good faith belief that use of the material in the manner complained of is not authorized by the copyright owner, its agent, or the law; and<\/span><\/li>\r\n\t\t<li><span>A statement that the information in the notification is accurate, and under penalty of perjury, that the complaining party is authorized to act on behalf of the owner of an exclusive right that is allegedly infringed.<\/span><\/li>\r\n\t<\/ul>\r\n\r\n\t<p>You acknowledge that if you fail to comply with all of the requirements of 17 USC section 512 (c)(3)(a), your notice may not be valid pursuant to the DMCA. For clarity, only DMCA notices should go to the designated agent; any other feedback, comments, requests for technical support, or other communications should be sent to Katrina McCarty, National Institute for Children\u2019s Health Quality, 30 Winter Street, Boston, Massachusetts 02108 (<a href=\"mailto: kmccarty@nichq.org\">kmccarty@nichq.org<\/a>).<\/p>\r\n\t<\/li>\r\n<\/ol>\r\n\r\n<ol start=\"2\">\r\n\t<li><span>Counter-Notice: If you believe that your content that was removed (or to which access was disabled) is not infringing or that you have the authorization from the copyright owner, the copyright owner\u2019s agent, or pursuant to law, to post and use the content, then you may send a counter-notice containing the following information to the designated agent identified in the Notification of Copyright Infringement, Part A:<\/span>\r\n\r\n\t<ul>\r\n\t\t<li><span>A physical or electronic signature;<\/span><\/li>\r\n\t\t<li><span>Identification of the material that has been removed or to which access has been disabled and the location at which the material appeared before it was removed or access to it was disabled;<\/span><\/li>\r\n\t\t<li><span>A statement under penalty of perjury that you have a good faith belief that the material was removed or disabled as a result of mistake or misidentification of the material to be removed or disabled; and<\/span><\/li>\r\n\t\t<li><span>Your name, address, telephone number, email address, and a statement that you consent to the jurisdiction of the federal courts in the Commonwealth of Massachusetts, and a statement that you will accept service of process from the person who provided notification of the alleged infringement.<\/span><\/li>\r\n\t<\/ul>\r\n\t<\/li>\r\n<\/ol>\r\n\r\n<h3><span class=\"blue-color\">Disclaimer of Warranties<\/span><\/h3>\r\n\r\n<p>The website, the content, and other material on the website are provided on an \u201cAs Is\u201d basis without warranties of any kind, either express or implied, including without limitation warranties of title, non-infringement, or implied warranties of merchantability or fitness for a particular purpose. We do not warrant that any content is complete or accurate, that the website will be uninterrupted or error free, or that any content or material is free of rogue programming.<\/p>\r\n\r\n<h3><span class=\"blue-color\">Release and Indemnity<\/span><\/h3>\r\n\r\n<p>Though we expect all users to adhere to our content policies in these Terms, you may be exposed to content that violates our policies or is otherwise offensive through the use of the website. Your use of the website is at your own risk. You agree that we are not liable for content that is provided by others. We take no responsibility for your exposure to content on the website whether it violates our policies or not. You understand that the information and opinions in content uploaded by third parties represent solely the thoughts of the author and is neither endorsed by nor does it necessarily reflect our beliefs. You hereby release and waive any and all claims and\/or liability against NICHQ and our employees, officers, trustees, affiliates, and\/or licensors, arising from or in connection with your use of the website, the content, and\/or any other material on the website.<\/p>\r\n\r\n<h3><span class=\"blue-color\">Modifications<\/span><\/h3>\r\n\r\n<p>These Terms and the content may be revised, amended, or supplemented by NICHQ without notice at any time for any reason. Continuing to use the website after a change has been made will signify your acceptance of the changes. You should refer back to this page for future updates.<\/p>\r\n\r\n<h3><span class=\"blue-color\">Privacy Policy<\/span><\/h3>\r\n\r\n<p>The <a href=\"privacy-policy\">NICHQ Privacy Policy<\/a>&nbsp;provides additional terms and conditions that apply to your use of the website. If you do not agree to the conditions therein, please do not use the website.<\/p>\r\n\r\n<h3><span class=\"blue-color\">Other<\/span><\/h3>\r\n\r\n<p>These Terms will be governed by and interpreted in the English language pursuant to the laws of the Commonwealth of Massachusetts, United States of America, without giving effect to any principles of conflicts of law. If any provision of this agreement shall be unlawful, void, or for any reason unenforceable, then that provision shall be deemed severable from this agreement and shall not affect the validity and enforceability of any remaining provisions.<\/p>\r\n\r\n<h3><span class=\"blue-color\">Questions or Concerns<\/span><\/h3>\r\n\r\n<p>For questions or concerns about these Terms of Use, please contact Matthew Biewener (<a href=\"mailto: mbiewener@nichq.org\">mbiewener@nichq.org<\/a>).<\/p>\r\n\r\n<p>&nbsp;<\/p>\r\n\r\n<p>Last updated May 10, 2017<\/p>\r\n",
            "format": "basic_html",
            "lang": "en"
        }
    ]
}